"CSVFiles/KFoldStratifiedShuffle=True05.16.2021, 21.02.14/Run_2"
Accuracy,0.2982456140350877
Precision Score,0.14250628690462164
Recall Score,0.2982456140350877
Weighted F1 Score,0.17075317267052328
-------------------------------
Distribution of Train Events
Non Aggressive Event,Aggressive Right Turn,Aggressive Left Turn,Aggressive Acceleration,Aggressive Braking,Aggressive Left Lane Change,Aggressive Right Lane Change
1474,1127,1125,1291,699,185,256
Distribution of Test Events
Non Aggressive Event,Aggressive Right Turn,Aggressive Left Turn,Aggressive Acceleration,Aggressive Braking,Aggressive Left Lane Change,Aggressive Right Lane Change
368,282,282,323,175,46,63
Confusion Matrix
,,,,Predicated Class
,,Non Aggressive Event,Aggressive Right Turn,Aggressive Left Turn,Aggressive Acceleration,Aggressive Braking,Aggressive Left Lane Change,Aggressive Right Lane Change
,Non Aggressive Event,368,0,0,0,0,0,0
,Aggressive Right Turn,191,91,0,0,0,0,0
,Aggressive Left Turn,217,65,0,0,0,0,0
,Aggressive Acceleration,320,3,0,0,0,0,0
Actual Class,Aggressive Braking,153,22,0,0,0,0,0
,Aggressive Left Lane Change,30,16,0,0,0,0,0
,Aggressive Right Lane Change,40,23,0,0,0,0,0

----------------------------
Multi Label Confusion Matrix
Non Aggressive Event
,Predicated Class
220,951
0,368
Actual Class

Aggressive Right Turn
,Predicated Class
1128,129
191,91
Actual Class

Aggressive Left Turn
,Predicated Class
1257,0
282,0
Actual Class

Aggressive Acceleration
,Predicated Class
1216,0
323,0
Actual Class

Aggressive Braking
,Predicated Class
1364,0
175,0
Actual Class

Aggressive Left Lane Change
,Predicated Class
1493,0
46,0
Actual Class

Aggressive Right Lane Change
,Predicated Class
1476,0
63,0
Actual Class


----------------------------
