"CSVFiles/KFoldStratified10LAGCarlaData05.31.2021, 11.24.11/Run_3"
Accuracy,0.9483870967741935
Weighted Precision Score,0.9495816289035559
Weighted Recall Score,0.9483870967741935
Weighted F1 Score,0.9484064944107005
-------------------------------
Distribution of Train Events
Non Aggressive Event,Aggressive Right Turn,Aggressive Left Turn,Aggressive Acceleration,Aggressive Braking,Aggressive Left Lane Change,Aggressive Right Lane Change
296,227,225,258,143,38,52
Distribution of Test Events
Non Aggressive Event,Aggressive Right Turn,Aggressive Left Turn,Aggressive Acceleration,Aggressive Braking,Aggressive Left Lane Change,Aggressive Right Lane Change
74,56,57,65,35,10,13
Confusion Matrix
,,,,Predicated Class
,,Non Aggressive Event,Aggressive Right Turn,Aggressive Left Turn,Aggressive Acceleration,Aggressive Braking,Aggressive Left Lane Change,Aggressive Right Lane Change
,Non Aggressive Event,71,0,0,3,0,0,0
,Aggressive Right Turn,0,54,1,1,0,0,0
,Aggressive Left Turn,0,0,56,0,0,0,1
,Aggressive Acceleration,8,0,0,57,0,0,0
Actual Class,Aggressive Braking,0,0,1,0,34,0,0
,Aggressive Left Lane Change,0,0,0,1,0,9,0
,Aggressive Right Lane Change,0,0,0,0,0,0,13

----------------------------
Multi Label Confusion Matrix
Non Aggressive Event
,Predicated Class
228,8
3,71
Actual Class

Aggressive Right Turn
,Predicated Class
254,0
2,54
Actual Class

Aggressive Left Turn
,Predicated Class
251,2
1,56
Actual Class

Aggressive Acceleration
,Predicated Class
240,5
8,57
Actual Class

Aggressive Braking
,Predicated Class
275,0
1,34
Actual Class

Aggressive Left Lane Change
,Predicated Class
300,0
1,9
Actual Class

Aggressive Right Lane Change
,Predicated Class
296,1
0,13
Actual Class


----------------------------
