"CSVFiles/KFoldStratifiedShuffle=True04.21.2021, 08.36.21/Run_3"
Accuracy,0.9975961538461539
Precision Score,0.9976136051717447
Recall Score,0.9975961538461539
Weighted F1 Score,0.9975992346979032
-------------------------------
Distribution of Train Events
Non Aggressive Event,Aggressive Right Turn,Aggressive Left Turn,Aggressive Acceleration,Aggressive Braking,Aggressive Left Lane Change,Aggressive Right Lane Change
2266,1323,1351,1553,970,350,508
Distribution of Test Events
Non Aggressive Event,Aggressive Right Turn,Aggressive Left Turn,Aggressive Acceleration,Aggressive Braking,Aggressive Left Lane Change,Aggressive Right Lane Change
566,331,338,389,242,87,127
Confusion Matrix
,,,,Predicated Class
,,Non Aggressive Event,Aggressive Right Turn,Aggressive Left Turn,Aggressive Acceleration,Aggressive Braking,Aggressive Left Lane Change,Aggressive Right Lane Change
,Non Aggressive Event,564,0,0,0,0,0,2
,Aggressive Right Turn,0,331,0,0,0,0,0
,Aggressive Left Turn,2,0,336,0,0,0,0
,Aggressive Acceleration,1,0,0,388,0,0,0
Actual Class,Aggressive Braking,0,0,0,0,242,0,0
,Aggressive Left Lane Change,0,0,0,0,0,87,0
,Aggressive Right Lane Change,0,0,0,0,0,0,127

----------------------------
Multi Label Confusion Matrix
Non Aggressive Event
,Predicated Class
1511,3
2,564
Actual Class

Aggressive Right Turn
,Predicated Class
1749,0
0,331
Actual Class

Aggressive Left Turn
,Predicated Class
1742,0
2,336
Actual Class

Aggressive Acceleration
,Predicated Class
1691,0
1,388
Actual Class

Aggressive Braking
,Predicated Class
1838,0
0,242
Actual Class

Aggressive Left Lane Change
,Predicated Class
1993,0
0,87
Actual Class

Aggressive Right Lane Change
,Predicated Class
1951,2
0,127
Actual Class


----------------------------
