"CSVFiles/KFoldStratified04.15.2021, 07.51.56/Run_1",,,,,,,
,,,,,,,
Accuracy,0.744639376,,,,,,
,,,,,,,
Precision Score,0.752731588,,,,,,
,,,,,,,
Recall Score,0.744639376,,,,,,
,,,,,,,
Weighted F1 Score,0.733004042,,,,,,
,,,,,,,
-------------------------------,,,,,,,
Distribution of Events,,,,,,,
,Non Aggressive Event,Aggressive Right Turn,Aggressive Left Turn,Aggressive Acceleration,Aggressive Braking,Aggressive Left Lane Change,Aggressive Right Lane Change
,369,281,282,323,174,46,64
,,,,,,,
Confusion Matrix,,,,,,,
,,,,,,,
Non Aggressive Event,Aggressive Right Turn,Aggressive Left Turn,Aggressive Acceleration,Aggressive Braking,Aggressive Left Lane Change,Aggressive Right Lane Change,
,,,,,,,
Non Aggressive Event,200,0,8,135,26,0,0
,,,,,,,
Aggressive Right Turn,0,279,2,0,0,0,0
,,,,,,,
Aggressive Left Turn,0,16,259,7,0,0,0
,,,,,,,
Aggressive Acceleration,62,0,0,254,7,0,0
,,,,,,,
Aggressive Braking,0,44,33,22,75,0,0
,,,,,,,
Aggressive Left Lane Change,0,0,0,0,0,46,0
,,,,,,,
Aggressive Right Lane Change,0,0,6,0,4,21,33
,,,,,,,
,,,,,,,
,,,,,,,
----------------------------,,,,,,,
,,,,,,,
Multi Label Confusion Matrix,,,,,,,
,,,,,,,
Non Aggressive Event,,,,,,,
,,,,,,,
1108,62,,,,,,
,,,,,,,
169,200,,,,,,
,,,,,,,
,,,,,,,
,,,,,,,
Aggressive Right Turn,,,,,,,
,,,,,,,
1198,60,,,,,,
,,,,,,,
2,279,,,,,,
,,,,,,,
,,,,,,,
,,,,,,,
Aggressive Left Turn,,,,,,,
,,,,,,,
1208,49,,,,,,
,,,,,,,
23,259,,,,,,
,,,,,,,
,,,,,,,
,,,,,,,
Aggressive Acceleration,,,,,,,
,,,,,,,
1052,164,,,,,,
,,,,,,,
69,254,,,,,,
,,,,,,,
,,,,,,,
,,,,,,,
Aggressive Braking,,,,,,,
,,,,,,,
1328,37,,,,,,
,,,,,,,
99,75,,,,,,
,,,,,,,
,,,,,,,
,,,,,,,
Aggressive Left Lane Change,,,,,,,
,,,,,,,
1472,21,,,,,,
,,,,,,,
0,46,,,,,,
,,,,,,,
,,,,,,,
,,,,,,,
Aggressive Right Lane Change,,,,,,,
,,,,,,,
1475,0,,,,,,
,,,,,,,
31,33,,,,,,
,,,,,,,
,,,,,,,
,,,,,,,
,,,,,,,
,,,,,,,
----------------------------,,,,,,,
