"CSVFiles/KFoldStratified04.16.2021, 10.22.27/Run_3"
Accuracy,0.7
Precision Score,0.5888888888888889
Recall Score,0.7
Weighted F1 Score,0.6230769230769231
-------------------------------
Confusion Matrix
Non Aggressive Event,Aggressive Right Turn,Aggressive Left Turn,Aggressive Acceleration,Aggressive Braking,Aggressive Left Lane Change,Aggressive Right Lane Change
Non Aggressive Event,10,0,0,0,0,0
Aggressive Right Turn,0,4,0,0,0,0
Aggressive Left Turn,0,2,0,0,0,0
Aggressive Acceleration,0,2,0,0,0,0
Aggressive Braking,0,1,0,0,0,0
Aggressive Left Lane Change,0,0,0,1,0,0

----------------------------
Multi Label Confusion Matrix
Non Aggressive Event
10,0
0,10

Aggressive Right Turn
11,5
0,4

Aggressive Left Turn
18,0
2,0

Aggressive Acceleration
17,1
2,0

Aggressive Braking
19,0
1,0

Aggressive Left Lane Change
19,0
1,0


----------------------------
