"CSVFiles/KFoldStratifiedShuffle=True05.18.2021, 10.06.48/Run_4"
Accuracy,0.9883040935672515
Precision Score,0.9884553634564495
Recall Score,0.9883040935672515
Weighted F1 Score,0.9883144816533851
-------------------------------
Distribution of Train Events
Non Aggressive Event,Aggressive Right Turn,Aggressive Left Turn,Aggressive Acceleration,Aggressive Braking,Aggressive Left Lane Change,Aggressive Right Lane Change
1474,1127,1126,1291,699,185,255
Distribution of Test Events
Non Aggressive Event,Aggressive Right Turn,Aggressive Left Turn,Aggressive Acceleration,Aggressive Braking,Aggressive Left Lane Change,Aggressive Right Lane Change
368,282,281,323,175,46,64
Confusion Matrix
,,,,Predicated Class
,,Non Aggressive Event,Aggressive Right Turn,Aggressive Left Turn,Aggressive Acceleration,Aggressive Braking,Aggressive Left Lane Change,Aggressive Right Lane Change
,Non Aggressive Event,358,0,0,10,0,0,0
,Aggressive Right Turn,0,280,1,0,0,0,1
,Aggressive Left Turn,0,0,280,0,0,0,1
,Aggressive Acceleration,0,1,1,319,2,0,0
Actual Class,Aggressive Braking,1,0,0,0,174,0,0
,Aggressive Left Lane Change,0,0,0,0,0,46,0
,Aggressive Right Lane Change,0,0,0,0,0,0,64

----------------------------
Multi Label Confusion Matrix
Non Aggressive Event
,Predicated Class
1170,1
10,358
Actual Class

Aggressive Right Turn
,Predicated Class
1256,1
2,280
Actual Class

Aggressive Left Turn
,Predicated Class
1256,2
1,280
Actual Class

Aggressive Acceleration
,Predicated Class
1206,10
4,319
Actual Class

Aggressive Braking
,Predicated Class
1362,2
1,174
Actual Class

Aggressive Left Lane Change
,Predicated Class
1493,0
0,46
Actual Class

Aggressive Right Lane Change
,Predicated Class
1473,2
0,64
Actual Class


----------------------------
