"CSVFiles/KFoldStratified13LAGCarlaData05.29.2021, 12.15.33/Run_2"
Accuracy,0.997946611909651
Weighted Precision Score,0.997972604163959
Weighted Recall Score,0.997946611909651
Weighted F1 Score,0.997946611909651
-------------------------------
Distribution of Train Events
Non Aggressive Event,Aggressive Right Turn,Aggressive Left Turn,Aggressive Acceleration,Aggressive Braking,Aggressive Left Lane Change,Aggressive Right Lane Change
390,266,251,165,250,314,311
Distribution of Test Events
Non Aggressive Event,Aggressive Right Turn,Aggressive Left Turn,Aggressive Acceleration,Aggressive Braking,Aggressive Left Lane Change,Aggressive Right Lane Change
97,67,63,41,62,79,78
Confusion Matrix
,,,,Predicated Class
,,Non Aggressive Event,Aggressive Right Turn,Aggressive Left Turn,Aggressive Acceleration,Aggressive Braking,Aggressive Left Lane Change,Aggressive Right Lane Change
,Non Aggressive Event,97,0,0,0,0,0,0
,Aggressive Right Turn,0,67,0,0,0,0,0
,Aggressive Left Turn,0,0,63,0,0,0,0
,Aggressive Acceleration,0,0,0,41,0,0,0
Actual Class,Aggressive Braking,0,0,0,0,62,0,0
,Aggressive Left Lane Change,0,0,0,0,0,78,1
,Aggressive Right Lane Change,0,0,0,0,0,0,78

----------------------------
Multi Label Confusion Matrix
Non Aggressive Event
,Predicated Class
390,0
0,97
Actual Class

Aggressive Right Turn
,Predicated Class
420,0
0,67
Actual Class

Aggressive Left Turn
,Predicated Class
424,0
0,63
Actual Class

Aggressive Acceleration
,Predicated Class
446,0
0,41
Actual Class

Aggressive Braking
,Predicated Class
425,0
0,62
Actual Class

Aggressive Left Lane Change
,Predicated Class
408,0
1,78
Actual Class

Aggressive Right Lane Change
,Predicated Class
408,1
0,78
Actual Class


----------------------------
