"CSVFiles/KFoldStratified04.14.2021, 15.06.55/Run_2"
Accuracy,0.74375
Precision Score,0.746908154983901
Recall Score,0.74375
Weighted F1 Score,0.7374984565288875
-------------------------------
Confusion Matrix
Non Aggressive Event,Aggressive Right Turn,Aggressive Left Turn,Aggressive Acceleration,Aggressive Braking,Aggressive Left Lane Change,Aggressive Right Lane Change
Non Aggressive Event,374,0,0,136,33,5,18
Aggressive Right Turn,1,239,65,0,13,4,9
Aggressive Left Turn,0,39,293,0,5,0,1
Aggressive Acceleration,25,0,6,345,6,0,7
Aggressive Braking,24,13,0,0,184,0,21
Aggressive Left Lane Change,0,49,23,1,0,14,0
Aggressive Right Lane Change,1,0,0,0,4,24,98

----------------------------
Multi Label Confusion Matrix
Non Aggressive Event
1463,51
192,374

Aggressive Right Turn
1648,101
92,239

Aggressive Left Turn
1648,94
45,293

Aggressive Acceleration
1554,137
44,345

Aggressive Braking
1777,61
58,184

Aggressive Left Lane Change
1960,33
73,14

Aggressive Right Lane Change
1897,56
29,98


----------------------------
