"CSVFiles/KFoldStratified10LAGCombinedData05.21.2021, 00.29.28/Run_0"
Accuracy,0.8778280542986425
Weighted Precision Score,0.8793557188508684
Weighted Recall Score,0.8778280542986425
Weighted F1 Score,0.8781817085100815
-------------------------------
Distribution of Train Events
Non Aggressive Event,Aggressive Right Turn,Aggressive Left Turn,Aggressive Acceleration,Aggressive Braking,Aggressive Left Lane Change,Aggressive Right Lane Change
739,341,507,1691,1276,312,437
Distribution of Test Events
Non Aggressive Event,Aggressive Right Turn,Aggressive Left Turn,Aggressive Acceleration,Aggressive Braking,Aggressive Left Lane Change,Aggressive Right Lane Change
185,85,127,423,319,78,109
Confusion Matrix
,,,,Predicated Class
,,Non Aggressive Event,Aggressive Right Turn,Aggressive Left Turn,Aggressive Acceleration,Aggressive Braking,Aggressive Left Lane Change,Aggressive Right Lane Change
,Non Aggressive Event,158,0,0,8,9,1,9
,Aggressive Right Turn,0,76,0,4,0,0,5
,Aggressive Left Turn,0,1,115,3,1,7,0
,Aggressive Acceleration,11,1,1,384,10,7,9
Actual Class,Aggressive Braking,4,1,2,9,292,3,8
,Aggressive Left Lane Change,8,0,1,0,14,54,1
,Aggressive Right Lane Change,6,1,0,8,8,1,85

----------------------------
Multi Label Confusion Matrix
Non Aggressive Event
,Predicated Class
1112,29
27,158
Actual Class

Aggressive Right Turn
,Predicated Class
1237,4
9,76
Actual Class

Aggressive Left Turn
,Predicated Class
1195,4
12,115
Actual Class

Aggressive Acceleration
,Predicated Class
871,32
39,384
Actual Class

Aggressive Braking
,Predicated Class
965,42
27,292
Actual Class

Aggressive Left Lane Change
,Predicated Class
1229,19
24,54
Actual Class

Aggressive Right Lane Change
,Predicated Class
1185,32
24,85
Actual Class


----------------------------
