"CSVFiles/KFoldStratified04.20.2021, 09.53.12/Run_0",,,,,,,,
Shuffle = True, Epochs = 500,,,,,,,
,,,,,,,,
Accuracy,0.999350649,,,,,,,
,,,,,,,,
Precision Score,0.99935266,,,,,,,
,,,,,,,,
Recall Score,0.999350649,,,,,,,
,,,,,,,,
Weighted F1 Score,0.999350222,,,,,,,
,,,,,,,,
-------------------------------,,,,,,,,
Distribution of Train Events,,,,,,,,
,,,,,,,,
,,,,,,,,
Distribution of Test Events,,,,,,,,
,,,,,,,,
Non Aggressive Event,Aggressive Right Turn,Aggressive Left Turn,Aggressive Acceleration,Aggressive Braking,Aggressive Left Lane Change,Aggressive Right Lane Change,,
,,,,,,,,
369,282,281,322,175,47,64,,
,,,,,,,,
Confusion Matrix,,,,,,,,
,,,,,,,,
,,,,Predicated Class,,,,
,,,,,,,,
,,Non Aggressive Event,Aggressive Right Turn,Aggressive Left Turn,Aggressive Acceleration,Aggressive Braking,Aggressive Left Lane Change,Aggressive Right Lane Change
,,,,,,,,
,Non Aggressive Event,369,0,0,0,0,0,0
,,,,,,,,
,Aggressive Right Turn,0,282,0,0,0,0,0
,,,,,,,,
,Aggressive Left Turn,0,0,281,0,0,0,0
,,,,,,,,
,Aggressive Acceleration,0,0,0,322,0,0,0
,,,,,,,,
Actual Class,Aggressive Braking,0,0,0,1,174,0,0
,,,,,,,,
,Aggressive Left Lane Change,0,0,0,0,0,47,0
,,,,,,,,
,Aggressive Right Lane Change,0,0,0,0,0,0,64
,,,,,,,,
,,,,,,,,
,,,,,,,,
----------------------------,,,,,,,,
,,,,,,,,
Multi Label Confusion Matrix,,,,,,,,
,,,,,,,,
Non Aggressive Event,,,,,,,,
,,,,,,,,
,Predicated Class,,,,,,,
,,,,,,,,
1171,0,,,,,,,
,,,,,,,,
0,369,,,,,,,
,,,,,,,,
Actual Class,,,,,,,,
,,,,,,,,
,,,,,,,,
,,,,,,,,
Aggressive Right Turn,,,,,,,,
,,,,,,,,
,Predicated Class,,,,,,,
,,,,,,,,
1258,0,,,,,,,
,,,,,,,,
0,282,,,,,,,
,,,,,,,,
Actual Class,,,,,,,,
,,,,,,,,
,,,,,,,,
,,,,,,,,
Aggressive Left Turn,,,,,,,,
,,,,,,,,
,Predicated Class,,,,,,,
,,,,,,,,
1259,0,,,,,,,
,,,,,,,,
0,281,,,,,,,
,,,,,,,,
Actual Class,,,,,,,,
,,,,,,,,
,,,,,,,,
,,,,,,,,
Aggressive Acceleration,,,,,,,,
,,,,,,,,
,Predicated Class,,,,,,,
,,,,,,,,
1217,1,,,,,,,
,,,,,,,,
0,322,,,,,,,
,,,,,,,,
Actual Class,,,,,,,,
,,,,,,,,
,,,,,,,,
,,,,,,,,
Aggressive Braking,,,,,,,,
,,,,,,,,
,Predicated Class,,,,,,,
,,,,,,,,
1365,0,,,,,,,
,,,,,,,,
1,174,,,,,,,
,,,,,,,,
Actual Class,,,,,,,,
,,,,,,,,
,,,,,,,,
,,,,,,,,
Aggressive Left Lane Change,,,,,,,,
,,,,,,,,
,Predicated Class,,,,,,,
,,,,,,,,
1493,0,,,,,,,
,,,,,,,,
0,47,,,,,,,
,,,,,,,,
Actual Class,,,,,,,,
,,,,,,,,
,,,,,,,,
,,,,,,,,
Aggressive Right Lane Change,,,,,,,,
,,,,,,,,
,Predicated Class,,,,,,,
,,,,,,,,
1476,0,,,,,,,
,,,,,,,,
0,64,,,,,,,
,,,,,,,,
Actual Class,,,,,,,,
,,,,,,,,
,,,,,,,,
,,,,,,,,
,,,,,,,,
,,,,,,,,
----------------------------,,,,,,,,
