"CSVFiles/KFoldStratifiedShuffle=True05.10.2021, 23.28.05/Run_3"
Accuracy,0.9808917197452229
Precision Score,0.9813357684598147
Recall Score,0.9808917197452229
Weighted F1 Score,0.9804835635786184
-------------------------------
Distribution of Train Events
Non Aggressive Event,Aggressive Right Turn,Aggressive Left Turn,Aggressive Acceleration,Aggressive Braking,Aggressive Left Lane Change,Aggressive Right Lane Change
1754,1347,1346,1531,939,265,355
Distribution of Test Events
Non Aggressive Event,Aggressive Right Turn,Aggressive Left Turn,Aggressive Acceleration,Aggressive Braking,Aggressive Left Lane Change,Aggressive Right Lane Change
438,337,336,383,235,66,89
Confusion Matrix
,,,,Predicated Class
,,Non Aggressive Event,Aggressive Right Turn,Aggressive Left Turn,Aggressive Acceleration,Aggressive Braking,Aggressive Left Lane Change,Aggressive Right Lane Change
,Non Aggressive Event,436,0,0,2,0,0,0
,Aggressive Right Turn,0,334,0,0,2,0,1
,Aggressive Left Turn,0,0,334,1,1,0,0
,Aggressive Acceleration,0,0,1,382,0,0,0
Actual Class,Aggressive Braking,9,0,0,0,226,0,0
,Aggressive Left Lane Change,1,0,0,0,0,65,0
,Aggressive Right Lane Change,13,1,0,4,0,0,71

----------------------------
Multi Label Confusion Matrix
Non Aggressive Event
,Predicated Class
1423,23
2,436
Actual Class

Aggressive Right Turn
,Predicated Class
1546,1
3,334
Actual Class

Aggressive Left Turn
,Predicated Class
1547,1
2,334
Actual Class

Aggressive Acceleration
,Predicated Class
1494,7
1,382
Actual Class

Aggressive Braking
,Predicated Class
1646,3
9,226
Actual Class

Aggressive Left Lane Change
,Predicated Class
1818,0
1,65
Actual Class

Aggressive Right Lane Change
,Predicated Class
1794,1
18,71
Actual Class


----------------------------
