"CSVFiles/KFoldStratifiedShuffle=True05.18.2021, 10.06.48/Run_1"
Accuracy,0.9980506822612085
Precision Score,0.9980712736457733
Recall Score,0.9980506822612085
Weighted F1 Score,0.9980473821465295
-------------------------------
Distribution of Train Events
Non Aggressive Event,Aggressive Right Turn,Aggressive Left Turn,Aggressive Acceleration,Aggressive Braking,Aggressive Left Lane Change,Aggressive Right Lane Change
1473,1128,1125,1291,700,185,255
Distribution of Test Events
Non Aggressive Event,Aggressive Right Turn,Aggressive Left Turn,Aggressive Acceleration,Aggressive Braking,Aggressive Left Lane Change,Aggressive Right Lane Change
369,281,282,323,174,46,64
Confusion Matrix
,,,,Predicated Class
,,Non Aggressive Event,Aggressive Right Turn,Aggressive Left Turn,Aggressive Acceleration,Aggressive Braking,Aggressive Left Lane Change,Aggressive Right Lane Change
,Non Aggressive Event,369,0,0,0,0,0,0
,Aggressive Right Turn,0,281,0,0,0,0,0
,Aggressive Left Turn,0,0,282,0,0,0,0
,Aggressive Acceleration,0,0,0,323,0,0,0
Actual Class,Aggressive Braking,0,3,0,0,171,0,0
,Aggressive Left Lane Change,0,0,0,0,0,46,0
,Aggressive Right Lane Change,0,0,0,0,0,0,64

----------------------------
Multi Label Confusion Matrix
Non Aggressive Event
,Predicated Class
1170,0
0,369
Actual Class

Aggressive Right Turn
,Predicated Class
1255,3
0,281
Actual Class

Aggressive Left Turn
,Predicated Class
1257,0
0,282
Actual Class

Aggressive Acceleration
,Predicated Class
1216,0
0,323
Actual Class

Aggressive Braking
,Predicated Class
1365,0
3,171
Actual Class

Aggressive Left Lane Change
,Predicated Class
1493,0
0,46
Actual Class

Aggressive Right Lane Change
,Predicated Class
1475,0
0,64
Actual Class


----------------------------
