8.731498
8.536644
9.343053
9.0914345
9.507215
8.968151
9.026184
8.704839
8.979428
8.735967
8.892928
8.213865
7.916409
8.413161
9.852619
8.890211
8.199231
8.161491
8.996187
10.31312
9.586963
8.384692
8.0985985
9.454085
9.578707
10.8557415
9.38646
8.863211
10.841982
11.138038
10.497881
8.446214
9.951176
11.139381
10.442275
8.114477
7.0973344
10.247915
10.957333
8.247943
7.076113
8.27094
10.7506275
9.064831
7.0202203
8.081497
9.905991
9.860212
7.7344713
7.698767
9.508719
10.035286
8.2841015
7.8716946
9.5367775
10.964714
10.084567
7.7806196
8.217825
10.817752
11.081865
9.155753
8.470972
9.543994
10.999999
10.146885
8.248387
8.58607
10.201008
10.570771
9.1996
8.118233
8.577519
9.963164
10.194109
8.280579
8.550042
9.76471
10.664217
10.295295
7.683338
7.6659307
9.516179
9.836942
9.244331
7.7356915
8.712624
9.908223
9.484589
8.601018
8.825505
9.748288
9.750203
8.581326
8.539159
8.925182
10.089576
10.271654
8.400495
9.136438
10.008882
11.024711
10.052925
8.909653
9.229142
10.292029
9.689703
8.467625
8.433883
9.647608
9.508627
8.688438
8.131998
8.771078
9.32417
9.2553215
9.174126
8.790396
9.367961
9.439095
9.538413
9.438707
9.095129
10.09847
9.712399
9.421233
8.436474
9.229689
10.300896
10.089921
8.690841
7.8157835
9.028354
9.5191
9.028526
8.33098
8.893297
9.542914
9.049721
8.463504
8.690239
9.209578
9.832077
9.805061
9.473581
8.839764
9.257953
9.778193
9.904134
8.757705
8.56622
9.109926
9.783029
8.399823
8.343387
9.351704
9.830285
9.464074
8.788436
9.085451
10.253496
9.799605
8.018374
8.167172
9.978585
9.08636
8.156153
8.219161
8.742993
9.79312
7.569951
7.4598174
8.09028
8.848868
8.893382
7.519514
7.950737
8.8166
9.192397
8.865072
7.7534
8.750059
8.898992
8.881027
8.547572
8.780494
9.827607
8.719542
8.416603
9.051828
9.540811
10.276164
9.0629015
9.144738
8.504968
9.278712
9.239083
9.070785
9.353281
