2.9288807
0.5614992
-3.3965406
-3.5587842
0.89018655
2.639008
2.3495383
-1.0165694
-2.2515469
-2.7366228
-0.784246
2.0679317
2.8453348
-0.91888386
-3.650425
-2.9442534
1.243371
3.956218
0.42993096
-1.3971891
-2.978308
-1.4806442
2.5456395
1.3017172
-0.32123333
-1.7884961
-1.4974031
-0.011878073
0.96515924
1.5134263
-0.22955179
-1.8180277
-1.7655222
-1.1513784
0.35792637
3.3104515
0.036067806
-1.6622412
-2.9757667
-0.20474496
2.285757
-0.037158877
-2.3799906
-3.0277638
-1.153446
-0.04828906
-0.66758305
-1.5408998
-1.4580154
-3.1365933
-2.308618
-1.9757504
-2.3643565
-1.438734
-1.6861857
-1.0705348
-1.3269398
-2.720426
-3.231866
-2.6658797
-2.5727048
-0.40415
-0.7257123
-2.543704
-5.8780975
-5.2740483
-0.4147284
0.10166478
-2.4782548
-4.7305355
-5.8840785
-4.0023737
-0.12017417
0.47331202
-4.6523123
-6.542106
-3.4782944
-1.7002223
-2.746322
-2.225844
-2.570016
-5.138136
-5.4988136
-3.1382189
0.5844245
-1.5800102
-4.6713357
-6.5810127
-3.484632
-1.484602
-0.84780955
-2.9408038
-4.896824
-5.1816187
-4.4057107
-1.4371052
-0.35630536
-3.094638
-5.9864616
-2.0142539
-6.796274
0.8061707
-1.1536148
-5.128917
-5.8966274
-3.6641235
-1.4847605
-1.4485486
-3.298187
-4.916663
-3.6589904
-1.9565973
-0.18359804
-2.6983185
-3.4695976
-5.1362047
-4.0908065
-1.7177241
-0.65342045
-1.6194
-3.5823205
-4.7943153
-2.6389132
-0.5227289
0.3483348
-2.3021004
-4.313856
-3.5640805
-0.98569584
-0.0035717487
-0.63448167
-3.4028394
-3.359088
-2.138751
-1.0331748
-1.8919935
-1.6061014
-1.7404699
-2.2193422
-1.2822556
-1.894987
-4.6890144
-0.6343943
-5.8269076
-0.027675927
-0.12717879
-1.4087063
0.44842452
-1.7232585
1.2180077
-0.35353696
-0.9436572
-2.6564887
-1.8506087
3.2735088
1.8888942
1.1251904
-0.34349722
-0.010665506
1.930866
2.6150825
2.6592193
1.3828695
-1.1119432
-0.49036378
0.28550476
4.084916
4.2815905
0.64513886
-2.947945
-2.7252598
2.6966481
5.8335876
3.706441
-1.9612958
-4.017101
-0.25335056
4.5574784
4.821558
0.5010892
-2.1768694
-1.5445344
1.0364571
2.9112227
2.2268848
0.8966555
-0.7105595
-0.90145016
0.6123578
2.0179322
2.4611216
0.491589
-1.2619393
-0.5836631
1.4996934
2.712825
1.2051966
-0.82702297
-0.9717369
0.9003663
2.4072835
1.6445702
-0.040629327
-0.863462
0.10259402
1.5152962
1.8219115
1.0759829
-0.0987971
-0.47072637
0.22355223
1.4046414
1.8236946
0.96748155
-0.24328867
-0.54237354
0.5514936
1.8024328
1.7760003
