9.431918
11.146984
9.985255
7.723318
8.144749
9.682557
10.208105
8.219815
7.3955545
9.198411
10.714411
9.714266
8.528647
8.310521
9.092314
10.052437
8.825604
8.58231
8.9426985
8.431297
8.6887245
9.45433
9.449652
8.782689
8.054773
8.842818
10.105308
9.71605
8.380306
7.2894006
9.584905
9.584038
9.915107
8.434021
8.430196
8.775406
9.353006
9.859666
9.016794
9.22529
8.60111
10.205686
9.727112
9.617639
9.367934
9.331156
9.214552
8.635217
9.593476
8.754434
8.330962
8.135734
8.852041
10.374598
8.646973
7.735947
8.729915
10.449617
10.379299
7.760558
7.450845
9.329034
11.733436
10.010015
6.741199
7.905701
9.954299
11.231489
9.416303
7.255997
8.536863
9.734012
9.941346
8.927342
9.283489
9.861417
9.784629
8.230631
8.298277
10.175623
10.716461
9.271862
7.38269
9.118493
10.953723
10.385927
8.267412
8.069775
9.592184
10.8513975
9.661835
7.8344035
8.099295
9.56805
9.975487
9.148217
8.288517
8.17096
9.305688
8.770662
8.538184
8.37371
8.697956
9.067904
8.764509
8.882332
8.510842
9.71841
9.886888
8.752712
8.771109
8.846529
9.899756
8.82867
8.213489
9.017415
10.011098
10.132609
8.7857275
8.390623
9.477084
10.074321
9.557688
8.615364
9.165066
9.817829
8.479833
8.71742
8.449053
9.706441
9.512681
9.536511
9.178639
9.888605
10.208972
9.328477
9.697646
9.3235035
10.13254
9.406595
9.165203
9.222883
9.612493
9.253657
8.05355
8.9051695
9.498934
9.319385
7.729794
7.9840984
9.494557
10.272344
10.101049
7.2720222
7.7377915
10.999382
10.140271
8.4282875
7.5866404
8.870542
10.873668
9.780917
8.638976
8.467196
9.603943
10.255941
8.534463
7.7207456
8.837947
10.725992
9.750976
7.924796
7.942655
9.512642
11.302118
8.877747
7.387407
8.990042
9.979037
9.159704
7.614511
8.859745
11.301725
10.49906
8.139826
7.2089953
9.652828
12.481348
10.787003
7.8471317
7.502076
10.745303
11.282614
8.389571
7.4742904
8.712094
11.370589
9.725435
8.18995
8.320925
9.5025215
11.427778
9.660372
7.714075
8.892133
10.440367
10.146857
8.225506
8.562523
10.009233
10.90674
9.238267
7.8786793
8.922045
10.187863
11.007669
9.176778
7.1234326
7.97872
10.527733
10.691463
8.580623
6.7990212
7.9502416
10.372472
10.214445
8.16023
6.806549
9.334641
10.846741
9.247909
6.889124
7.3938785
10.087605
10.993366
8.123766
6.1335216
8.981586
11.085811
9.677606
8.663054
6.6105504
9.803596
11.092996
9.769575
7.7001023
6.9947577
10.547577
10.393069
9.237535
8.100416
8.43649
10.556492
9.79489
8.845775
8.39823
9.149629
9.9546995
9.058986
8.927676
8.549666
9.393849
10.22322
8.343924
8.105968
9.221901
10.33891
8.785758
7.401356
8.752464
9.837572
10.289211
8.54858
8.08504
9.306622
10.475929
9.448761
8.67242
8.589185
8.880255
