"CSVFiles/KFoldStratifiedShuffle=True05.16.2021, 20.51.01/Run_4"
Accuracy,0.25329428989751096
Precision Score,0.11979742271571332
Recall Score,0.25329428989751096
Weighted F1 Score,0.1246664205682694
-------------------------------
Distribution of Train Events
Non Aggressive Event,Aggressive Right Turn,Aggressive Left Turn,Aggressive Acceleration,Aggressive Braking,Aggressive Left Lane Change,Aggressive Right Lane Change
1888,1453,1451,1646,1054,304,404
Distribution of Test Events
Non Aggressive Event,Aggressive Right Turn,Aggressive Left Turn,Aggressive Acceleration,Aggressive Braking,Aggressive Left Lane Change,Aggressive Right Lane Change
472,363,363,412,264,75,100
Confusion Matrix
,,,,Predicated Class
,,Non Aggressive Event,Aggressive Right Turn,Aggressive Left Turn,Aggressive Acceleration,Aggressive Braking,Aggressive Left Lane Change,Aggressive Right Lane Change
,Non Aggressive Event,472,0,0,0,0,0,0
,Aggressive Right Turn,316,47,0,0,0,0,0
,Aggressive Left Turn,333,30,0,0,0,0,0
,Aggressive Acceleration,412,0,0,0,0,0,0
Actual Class,Aggressive Braking,251,13,0,0,0,0,0
,Aggressive Left Lane Change,50,25,0,0,0,0,0
,Aggressive Right Lane Change,83,17,0,0,0,0,0

----------------------------
Multi Label Confusion Matrix
Non Aggressive Event
,Predicated Class
132,1445
0,472
Actual Class

Aggressive Right Turn
,Predicated Class
1601,85
316,47
Actual Class

Aggressive Left Turn
,Predicated Class
1686,0
363,0
Actual Class

Aggressive Acceleration
,Predicated Class
1637,0
412,0
Actual Class

Aggressive Braking
,Predicated Class
1785,0
264,0
Actual Class

Aggressive Left Lane Change
,Predicated Class
1974,0
75,0
Actual Class

Aggressive Right Lane Change
,Predicated Class
1949,0
100,0
Actual Class


----------------------------
