"CSVFiles/KFoldStratifiedShuffle=True05.17.2021, 20.20.48/Run_4"
Accuracy,0.956564177647633
Precision Score,0.957088629981582
Recall Score,0.956564177647633
Weighted F1 Score,0.9565450557826388
-------------------------------
Distribution of Train Events
Non Aggressive Event,Aggressive Right Turn,Aggressive Left Turn,Aggressive Acceleration,Aggressive Braking,Aggressive Left Lane Change,Aggressive Right Lane Change
1888,1453,1451,1646,1054,304,404
Distribution of Test Events
Non Aggressive Event,Aggressive Right Turn,Aggressive Left Turn,Aggressive Acceleration,Aggressive Braking,Aggressive Left Lane Change,Aggressive Right Lane Change
472,363,363,412,264,75,100
Confusion Matrix
,,,,Predicated Class
,,Non Aggressive Event,Aggressive Right Turn,Aggressive Left Turn,Aggressive Acceleration,Aggressive Braking,Aggressive Left Lane Change,Aggressive Right Lane Change
,Non Aggressive Event,456,1,2,7,1,3,2
,Aggressive Right Turn,0,356,1,0,2,2,2
,Aggressive Left Turn,5,10,337,5,4,2,0
,Aggressive Acceleration,7,3,4,395,2,1,0
Actual Class,Aggressive Braking,9,3,3,0,246,0,3
,Aggressive Left Lane Change,1,0,0,0,0,74,0
,Aggressive Right Lane Change,2,1,0,0,0,1,96

----------------------------
Multi Label Confusion Matrix
Non Aggressive Event
,Predicated Class
1553,24
16,456
Actual Class

Aggressive Right Turn
,Predicated Class
1668,18
7,356
Actual Class

Aggressive Left Turn
,Predicated Class
1676,10
26,337
Actual Class

Aggressive Acceleration
,Predicated Class
1625,12
17,395
Actual Class

Aggressive Braking
,Predicated Class
1776,9
18,246
Actual Class

Aggressive Left Lane Change
,Predicated Class
1965,9
1,74
Actual Class

Aggressive Right Lane Change
,Predicated Class
1942,7
4,96
Actual Class


----------------------------
