"CSVFiles/KFoldStratified04.16.2021, 12.01.56/Run_4"
Accuracy,0.95
Precision Score,0.925
Recall Score,0.95
Weighted F1 Score,0.9333333333333333
-------------------------------
Confusion Matrix
Non Aggressive Event,Aggressive Right Turn,Aggressive Left Turn,Aggressive Acceleration,Aggressive Braking,Aggressive Left Lane Change,Aggressive Right Lane Change
Non Aggressive Event,10,0,0,0,0,0,0
Aggressive Right Turn,0,4,0,0,0,0,0
Aggressive Left Turn,0,0,2,0,0,0,0
Aggressive Acceleration,0,0,0,1,0,0,0
Aggressive Braking,0,0,0,0,1,0,0
Aggressive Left Lane Change,0,0,0,0,0,1,0
Aggressive Right Lane Change,0,0,0,0,0,1,0

----------------------------
Multi Label Confusion Matrix
Non Aggressive Event
10,0
0,10

Aggressive Right Turn
16,0
0,4

Aggressive Left Turn
18,0
0,2

Aggressive Acceleration
19,0
0,1

Aggressive Braking
19,0
0,1

Aggressive Left Lane Change
18,1
0,1

Aggressive Right Lane Change
19,0
1,0


----------------------------
