"CSVFiles/KFoldStratified10LAGUAHData05.27.2021, 23.43.54/Run_4"
Accuracy,0.8690944881889764
Weighted Precision Score,0.8693951155326335
Weighted Recall Score,0.8690944881889764
Weighted F1 Score,0.8677497402899589
-------------------------------
Distribution of Train Events
Non Aggressive Event,Aggressive Right Turn,Aggressive Left Turn,Aggressive Acceleration,Aggressive Braking,Aggressive Left Lane Change,Aggressive Right Lane Change
444,281,114,1432,1134,274,385
Distribution of Test Events
Non Aggressive Event,Aggressive Right Turn,Aggressive Left Turn,Aggressive Acceleration,Aggressive Braking,Aggressive Left Lane Change,Aggressive Right Lane Change
110,71,29,359,283,68,96
Confusion Matrix
,,,,Predicated Class
,,Non Aggressive Event,Aggressive Right Turn,Aggressive Left Turn,Aggressive Acceleration,Aggressive Braking,Aggressive Left Lane Change,Aggressive Right Lane Change
,Non Aggressive Event,94,0,1,1,7,3,4
,Aggressive Right Turn,0,65,0,1,0,5,0
,Aggressive Left Turn,0,0,22,1,0,0,6
,Aggressive Acceleration,3,2,0,341,4,2,7
Actual Class,Aggressive Braking,5,2,1,9,253,1,12
,Aggressive Left Lane Change,7,4,2,6,5,37,7
,Aggressive Right Lane Change,6,2,3,6,7,1,71

----------------------------
Multi Label Confusion Matrix
Non Aggressive Event
,Predicated Class
885,21
16,94
Actual Class

Aggressive Right Turn
,Predicated Class
935,10
6,65
Actual Class

Aggressive Left Turn
,Predicated Class
980,7
7,22
Actual Class

Aggressive Acceleration
,Predicated Class
633,24
18,341
Actual Class

Aggressive Braking
,Predicated Class
710,23
30,253
Actual Class

Aggressive Left Lane Change
,Predicated Class
936,12
31,37
Actual Class

Aggressive Right Lane Change
,Predicated Class
884,36
25,71
Actual Class


----------------------------
